%YAML 1.1
%TAG !u! tag:unity3d.com,2011:
--- !u!1001 &963102334681252904
PrefabInstance:
  m_ObjectHideFlags: 0
  serializedVersion: 2
  m_Modification:
    m_TransformParent: {fileID: 0}
    m_Modifications:
    - target: {fileID: 2401674865474893415, guid: 6dc9de9d0f09968488561a9d27b4ca6d, type: 3}
      propertyPath: playerToSpawn
      value: 
      objectReference: {fileID: 2523639870868847136, guid: 9eec1b3b0ea7abe44920727cbd49a230, type: 3}
    - target: {fileID: 2537921596479070600, guid: 6dc9de9d0f09968488561a9d27b4ca6d, type: 3}
      propertyPath: m_Text
      value: '''The CaveMan'''
      objectReference: {fileID: 0}
    - target: {fileID: 3153490416105827084, guid: 6dc9de9d0f09968488561a9d27b4ca6d, type: 3}
      propertyPath: m_IsActive
      value: 1
      objectReference: {fileID: 0}
    - target: {fileID: 4201490424165577542, guid: 6dc9de9d0f09968488561a9d27b4ca6d, type: 3}
      propertyPath: m_IsActive
      value: 0
      objectReference: {fileID: 0}
    - target: {fileID: 4822548115627805972, guid: 6dc9de9d0f09968488561a9d27b4ca6d, type: 3}
      propertyPath: m_Name
      value: Character select - CaveMan
      objectReference: {fileID: 0}
    - target: {fileID: 4822548115627805972, guid: 6dc9de9d0f09968488561a9d27b4ca6d, type: 3}
      propertyPath: m_IsActive
      value: 1
      objectReference: {fileID: 0}
    - target: {fileID: 5476163881752742735, guid: 6dc9de9d0f09968488561a9d27b4ca6d, type: 3}
      propertyPath: m_Sprite
      value: 
      objectReference: {fileID: 1808964706522467271, guid: a47294d8f066c634d90ee371916313ff, type: 3}
    - target: {fileID: 7528007782263839091, guid: 6dc9de9d0f09968488561a9d27b4ca6d, type: 3}
      propertyPath: m_LocalPosition.x
      value: 7.6010976
      objectReference: {fileID: 0}
    - target: {fileID: 7528007782263839091, guid: 6dc9de9d0f09968488561a9d27b4ca6d, type: 3}
      propertyPath: m_LocalPosition.y
      value: 20.24
      objectReference: {fileID: 0}
    - target: {fileID: 7528007782263839091, guid: 6dc9de9d0f09968488561a9d27b4ca6d, type: 3}
      propertyPath: m_LocalPosition.z
      value: 0
      objectReference: {fileID: 0}
    - target: {fileID: 7528007782263839091, guid: 6dc9de9d0f09968488561a9d27b4ca6d, type: 3}
      propertyPath: m_LocalRotation.x
      value: 0
      objectReference: {fileID: 0}
    - target: {fileID: 7528007782263839091, guid: 6dc9de9d0f09968488561a9d27b4ca6d, type: 3}
      propertyPath: m_LocalRotation.y
      value: 0
      objectReference: {fileID: 0}
    - target: {fileID: 7528007782263839091, guid: 6dc9de9d0f09968488561a9d27b4ca6d, type: 3}
      propertyPath: m_LocalRotation.z
      value: 0
      objectReference: {fileID: 0}
    - target: {fileID: 7528007782263839091, guid: 6dc9de9d0f09968488561a9d27b4ca6d, type: 3}
      propertyPath: m_LocalRotation.w
      value: 1
      objectReference: {fileID: 0}
    - target: {fileID: 7528007782263839091, guid: 6dc9de9d0f09968488561a9d27b4ca6d, type: 3}
      propertyPath: m_RootOrder
      value: 0
      objectReference: {fileID: 0}
    - target: {fileID: 7528007782263839091, guid: 6dc9de9d0f09968488561a9d27b4ca6d, type: 3}
      propertyPath: m_LocalEulerAnglesHint.x
      value: 0
      objectReference: {fileID: 0}
    - target: {fileID: 7528007782263839091, guid: 6dc9de9d0f09968488561a9d27b4ca6d, type: 3}
      propertyPath: m_LocalEulerAnglesHint.y
      value: 0
      objectReference: {fileID: 0}
    - target: {fileID: 7528007782263839091, guid: 6dc9de9d0f09968488561a9d27b4ca6d, type: 3}
      propertyPath: m_LocalEulerAnglesHint.z
      value: 0
      objectReference: {fileID: 0}
    m_RemovedComponents: []
  m_SourcePrefab: {fileID: 100100000, guid: 6dc9de9d0f09968488561a9d27b4ca6d, type: 3}
